<svg version="1.2" xmlns="http://www.w3.org/2000/svg" viewBox="0 0 3840 2160" width="3840" height="2160">
	<title>bg-default</title>
	<style>
		tspan { white-space:pre } 
		.s0 { fill: #ff6982 } 
		.s1 { fill: #ff5757 } 
		.s2 { fill: #ff780b } 
		.s3 { fill: #ff9845 } 
		.s4 { fill: #ffbe8a } 
	</style>
	<path id="Shape 9" class="s0" d="m-424 2024l2876-236c0 0-3188-431.6-2876 236z"/>
	<path id="Shape 8" class="s1" d="m1436 1856c0 0 2796-803.6 2496-172"/>
	<path id="Shape 7" class="s2" d="m1236 1932c0 0 3236-771.6 2608-80"/>
	<path id="Shape 6" class="s3" d="m204.4 2042.9c0 0 4273.5-777.6 3826.2 24.8"/>
	<path id="Shape 5" class="s1" d="m220 1904l2696 196c0 0-2692-595.6-2696-196z"/>
	<path id="Shape 4" class="s2" d="m-120 2140l4028 196c0 0-3736-1027.6-4028-196z"/>
	<path id="Shape 3" class="s3" d="m-68 2196l3976-8c0 0-3324-607.6-3976 8z"/>
	<path id="Shape 2" class="s4" d="m-80 2192c0 0 4132-643.6 3968-32"/>
</svg>